{
    "_!": "Watcher Name",
    "watch_name": "BCHighway",

    "_!": "Watcher URL",
    "feed_url": "http://www.drivebc.ca/data/events.json",
    "feed_pin": "",

    "_!": "MASAS Configuration Information",
    "masas_hub_url": "http://192.168.1.15:8888",
    "masas_hub_secret": "abc",

    "_!": "Database connection",
    "host": "localhost",
    "port": 5432,
    "database": "nextgen_watchers",
    "user": "andy",
    "password": "password",

    "_!": "Working folder for this Service",
    "app_dir": ".",

    "_!": "StatusBoard URL information",
    "statusboard_url": "",

    "_!": "Update interval in minutes",
    "check_interval": 15,

    "_!": "Enable/Disable data store clean up",
    "enable_purge_data_store": "True",

    "_!": "Purge the data store items older then (days)",
    "purge_data_store": 30,

    "_!": "Last Item - Empty on purpose!",
    "_!": ""
}