{
    "_!": "Watcher Name",
    "watch_name": "ServiceExample",

    "_!": "Watcher URL",
    "feed_url": "http://localhost:8000/sampleData.json",
    "feed_pin": "",

    "_!": "MASAS Configuration Information",
    "masas_hub_url": "https://sandbox2.masas-sics.ca/hub",
    "masas_hub_secret": "",

    "_!": "Database connection",
    "host": "localhost",
    "port": 5432,
    "database": "watchers",
    "user": "",
    "password": "",

    "_!": "Working folder for this Service",
    "app_dir": ".",

    "_!": "StatusBoard URL information",
    "statusboard_url": "",

    "_!": "Update interval in minutes",
    "check_interval": 15,

    "_!": "Enable/Disable data store clean up",
    "enable_purge_data_store": "True",

    "_!": "Purge the data store items older then (days)",
    "purge_data_store": 30,

    "_!": "Last Item - Empty on purpose!",
    "_!": ""
}