{
    "_!": "Feed Data",
    "feed_name": "Sample Feed",

    "feed_data": [
        {
            "id": "1",
            "title": "title 1",
            "description": "description 1",
            "latitude": 45,
            "longitude": -75
        },
        {
            "id": "2",
            "title": "title 2",
            "description": "description 2",
            "latitude": 45.25,
            "longitude": -75.25
        },
        {
            "id": "3",
            "title": "title 3",
            "description": "description 3",
            "latitude": 45.5,
            "longitude": -75.5
        }
    ]
}